[gd_scene load_steps=2 format=2]

[ext_resource path="res://data/base/graphics/fixture/conveyor-belt-spritesheet.png" type="Texture" id=1]

[node name="BeltTest" type="Sprite"]

position = Vector2( -80, 0 )
texture = ExtResource( 1 )
hframes = 16
region_rect = Rect2( 0, 0, 80, 80 )
_sections_unfolded = [ "Animation", "Offset", "Region", "Transform" ]


